<svg width="30" height="30" viewBox="0 0 30 30" fill="none" xmlns="http://www.w3.org/2000/svg">
<path d="M17.4186 29.8047C17.2937 29.8251 17.1682 29.8438 17.0424 29.861C17.1682 29.8438 17.2937 29.8251 17.4186 29.8047Z" fill="white"/>
<path d="M17.7186 29.7539C17.6589 29.7649 17.5992 29.775 17.5394 29.7853C17.5992 29.775 17.6589 29.7649 17.7186 29.7539Z" fill="white"/>
<path d="M16.7072 29.9023C16.5609 29.9188 16.4137 29.9335 16.2661 29.9458C16.4137 29.9335 16.5609 29.9188 16.7072 29.9023Z" fill="white"/>
<path d="M16.9954 29.8672C16.9252 29.8766 16.8544 29.8853 16.7839 29.8935C16.8544 29.8853 16.9252 29.8766 16.9954 29.8672Z" fill="white"/>
<path d="M18.127 29.6729C18.0744 29.6841 18.0215 29.6953 17.9686 29.706C18.0215 29.6953 18.0744 29.6841 18.127 29.6729Z" fill="white"/>
<path d="M19.1405 29.4209C19.098 29.433 19.0554 29.4445 19.0128 29.4564C19.0554 29.4445 19.098 29.433 19.1405 29.4209Z" fill="white"/>
<path d="M18.8341 29.5049C18.7879 29.517 18.7414 29.5294 18.6949 29.541C18.7414 29.5294 18.7879 29.5172 18.8341 29.5049Z" fill="white"/>
<path d="M18.433 29.6045C18.384 29.6159 18.3346 29.6267 18.2852 29.6377C18.3346 29.6267 18.384 29.6159 18.433 29.6045Z" fill="white"/>
<path d="M16.2613 29.9463C16.1823 29.9529 16.1034 29.9589 16.0242 29.9641C16.1034 29.9589 16.1823 29.9529 16.2613 29.9463Z" fill="white"/>
<path d="M30 15C30 6.717 23.283 0 15 0C6.717 0 0 6.717 0 15C0 23.283 6.717 30 15 30C15.0881 30 15.1758 29.9982 15.2637 29.9966V18.3197H12.041V14.564H15.2637V11.8002C15.2637 8.59497 17.2204 6.85043 20.0796 6.85043C21.4487 6.85043 22.6257 6.95251 22.9688 6.99806V10.348H20.9972C19.4417 10.348 19.1405 11.0873 19.1405 12.1719V14.564H22.8598L22.375 18.3197H19.1405V29.4205C25.4102 27.6231 30 21.8468 30 15Z" fill="white"/>
<path d="M15.9911 29.9668C15.835 29.9769 15.6782 29.9849 15.521 29.9901C15.6782 29.9849 15.835 29.9769 15.9911 29.9668Z" fill="white"/>
<path d="M15.5129 29.9902C15.4301 29.993 15.347 29.995 15.2639 29.9964C15.347 29.995 15.4301 29.993 15.5129 29.9902Z" fill="white"/>
</svg>
