<svg width="20" height="20" viewBox="0 0 20 20" fill="none" xmlns="http://www.w3.org/2000/svg">
<path d="M15.1873 9.7247L7.85401 4.7247C7.75167 4.65537 7.61967 4.6477 7.51034 4.70537C7.40134 4.76303 7.33301 4.87637 7.33301 5.00003V15C7.33301 15.1237 7.40134 15.237 7.51067 15.2947C7.55934 15.3207 7.61301 15.3334 7.66634 15.3334C7.73201 15.3334 7.79767 15.3137 7.85401 15.2754L15.1873 10.2754C15.2783 10.2134 15.333 10.1104 15.333 10C15.333 9.8897 15.2783 9.7867 15.1873 9.7247ZM7.99967 14.369V5.63103L14.408 10L7.99967 14.369Z" fill="white"/>
<path d="M10 0C4.486 0 0 4.486 0 10C0 15.514 4.486 20 10 20C15.514 20 20 15.514 20 10C20 4.486 15.514 0 10 0ZM10 19.3333C4.85367 19.3333 0.666667 15.1463 0.666667 10C0.666667 4.85367 4.85367 0.666667 10 0.666667C15.1463 0.666667 19.3333 4.85367 19.3333 10C19.3333 15.1463 15.1463 19.3333 10 19.3333Z" fill="white"/>
</svg>
