<?xml version="1.0" encoding="utf-8"?>
<!-- Generator: Adobe Illustrator 22.1.0, SVG Export Plug-In . SVG Version: 6.00 Build 0)  -->
<svg version="1.1" id="Layer_1" xmlns="http://www.w3.org/2000/svg" xmlns:xlink="http://www.w3.org/1999/xlink" x="0px" y="0px"
	 viewBox="0 0 18 24" style="enable-background:new 0 0 18 24;" xml:space="preserve">
<style type="text/css">
	.st0{fill:#000;stroke:#000;stroke-miterlimit:10;}
</style>
<path class="st0" d="M16.4,6.1L16.4,6.1L16.4,6.1L16.4,6.1c0,0.2,0.1,0.4,0.2,0.6c0,0.1,0.1,0.3,0.1,0.4s0,0.1,0,0.2v0.1l0,0v1.1
	c0,1.2-0.6,2.5-1.3,3.9c-0.4,0.6-0.7,1.2-1.1,1.9c0,0.1-0.1,0.1-0.1,0.2c-0.4,0.7-0.9,1.4-1.3,2.1l0,0c0,0.1-0.1,0.2-0.3,0.3l0,0
	c-0.1,0.1-0.3,0.3-0.4,0.5l0,0c-0.1,0.2-0.2,0.3-0.3,0.5c-0.2,0.3-0.3,0.6-0.5,0.9c-0.5,0.9-1,1.7-1.5,2.6C9.6,22,9.3,22.5,9,23
	c-0.1-0.1-0.2-0.3-0.2-0.4c-1.3-2.2-2.7-4.3-4-6.5c-0.3-0.5-0.6-1-0.9-1.5c-0.4-0.7-0.9-1.4-1.3-2.1C1.9,11.3,1.4,10.1,1.3,9
	c0-0.1,0-0.2,0-0.3s0-0.1,0-0.2V8.4l0,0v-1c0.5-4.7,4.2-7,7.7-7c2.6,0,5.7,1.2,7.1,4.7l0,0l0,0c0,0.1,0.1,0.2,0.1,0.3
	C16.3,5.7,16.3,5.9,16.4,6.1z M5.7,9.3L5.7,9.3L5.7,9.3c0.7,1.7,2,2.3,3.3,2.3c2,0,3.6-1.6,3.6-3.6s-1.5-3.6-3.5-3.6
	c-0.8,0-1.6,0.2-2.3,0.8C6,5.8,5.6,6.6,5.6,7.7v0.7l0,0l0,0l0,0l0,0c0,0,0,0,0,0.1s0,0.1,0,0.2C5.6,8.8,5.6,9.1,5.7,9.3z"/>
</svg>
