<?xml version="1.0" encoding="utf-8"?>
<!-- Generator: Adobe Illustrator 23.0.1, SVG Export Plug-In . SVG Version: 6.00 Build 0)  -->
<svg version="1.1" id="Слой_1" xmlns="http://www.w3.org/2000/svg" xmlns:xlink="http://www.w3.org/1999/xlink" x="0px" y="0px"
	 viewBox="0 0 1876 1206" style="enable-background:new 0 0 1876 1206;" xml:space="preserve">
<style type="text/css">
	.st0{fill:#FFFFFF;}
</style>
<path class="st0" d="M275,377.7h27.3l64,98.4v-98.4h28.5v149.5h-27.4l-63.9-98.1v98.1H275V377.7z"/>
<path class="st0" d="M726.1,377.7H755l57.5,149.5h-29.6l-11.7-30.8h-61L698,527.2h-29.6L726.1,377.7z M740.7,417.3l-20.1,51.3h40
	L740.7,417.3z"/>
<path class="st0" d="M1190.3,398l-21.1,18.6c-7.4-10.3-14.9-15.4-22.6-15.4c-3.7,0-6.8,1-9.2,3c-2.4,2-3.6,4.3-3.6,6.8
	s0.8,4.9,2.5,7.1c2.3,3,9.3,9.4,20.9,19.2c10.9,9.1,17.4,14.8,19.7,17.2c5.8,5.8,9.9,11.4,12.3,16.7c2.4,5.3,3.6,11.1,3.6,17.4
	c0,12.3-4.2,22.4-12.7,30.4c-8.5,8-19.5,12-33.2,12c-10.6,0-19.9-2.6-27.8-7.8s-14.7-13.4-20.3-24.6l23.9-14.4
	c7.2,13.2,15.5,19.8,24.8,19.8c4.9,0,9-1.4,12.3-4.3c3.3-2.8,5-6.1,5-9.9c0-3.4-1.3-6.8-3.8-10.2c-2.5-3.4-8-8.6-16.6-15.5
	c-16.3-13.3-26.8-23.5-31.6-30.7c-4.8-7.2-7.1-14.4-7.1-21.6c0-10.4,3.9-19.3,11.9-26.7c7.9-7.4,17.6-11.1,29.2-11.1
	c7.5,0,14.6,1.7,21.3,5.2C1175.2,382.6,1182.5,388.9,1190.3,398z"/>
<path class="st0" d="M1497.8,377.7h28.9v49.1h49.9v-49.1h28.8v149.5h-28.8v-72.8h-49.9v72.8h-28.9V377.7z"/>
<path class="st0" d="M273.3,704.4h22.2c12,0,20.6,1.1,25.9,3.3s9.5,5.8,12.5,10.7c3.1,5,4.6,10.9,4.6,17.8c0,7.7-2,14-6,19.1
	s-9.4,8.6-16.3,10.6c-4,1.1-11.4,1.7-22,1.7v46.5h-20.9L273.3,704.4L273.3,704.4z M294.2,747.3h6.6c5.2,0,8.9-0.4,10.9-1.1
	c2-0.7,3.6-2,4.8-3.7c1.2-1.7,1.8-3.8,1.8-6.3c0-4.2-1.6-7.3-4.9-9.3c-2.4-1.4-6.8-2.2-13.3-2.2h-5.9V747.3z"/>
<path class="st0" d="M396.7,704.4h22.1c12.1,0,20.8,1.1,25.9,3.2c5.1,2.2,9.3,5.8,12.4,10.8s4.7,11,4.7,17.8
	c0,7.2-1.7,13.2-5.2,18.1c-3.5,4.9-8.7,8.5-15.6,11l26,48.8h-22.8l-24.7-46.5h-1.9v46.5h-20.9V704.4z M417.6,747.3h6.5
	c6.6,0,11.2-0.9,13.7-2.6s3.8-4.6,3.8-8.7c0-2.4-0.6-4.5-1.9-6.3c-1.2-1.8-2.9-3-5-3.8s-5.9-1.2-11.5-1.2h-5.7v22.6H417.6z"/>
<path class="st0" d="M570.2,701.6c15.5,0,28.9,5.6,40.1,16.9c11.2,11.2,16.8,25,16.8,41.1c0,16-5.5,29.6-16.5,40.7
	c-11,11.1-24.4,16.6-40.1,16.6c-16.5,0-30.2-5.7-41.1-17.1c-10.9-11.4-16.4-24.9-16.4-40.6c0-10.5,2.5-20.2,7.6-29
	s12.1-15.8,20.9-20.9C550.4,704.2,559.9,701.6,570.2,701.6z M570,722c-10.2,0-18.7,3.5-25.6,10.6c-6.9,7.1-10.4,16-10.4,26.9
	c0,12.1,4.4,21.7,13.1,28.8c6.8,5.5,14.5,8.3,23.3,8.3c9.9,0,18.4-3.6,25.3-10.7c7-7.2,10.5-16,10.5-26.5c0-10.4-3.5-19.3-10.5-26.5
	C588.6,725.7,580,722,570,722z"/>
<path class="st0" d="M681.1,704.4h24.8c16,0,27.8,2,35.6,5.9c7.8,4,14.1,10.4,19.2,19.3c5,8.9,7.5,19.3,7.5,31.2
	c0,8.5-1.4,16.2-4.2,23.3s-6.7,13-11.6,17.7c-4.9,4.7-10.3,7.9-16.1,9.7s-15.8,2.7-30,2.7h-25.1V704.4H681.1z M701.9,724.5v69.3h9.7
	c9.6,0,16.5-1.1,20.8-3.3s7.8-5.9,10.6-11.1c2.7-5.2,4.1-11.6,4.1-19.1c0-11.7-3.3-20.7-9.8-27.1c-5.9-5.8-15.3-8.7-28.3-8.7
	L701.9,724.5L701.9,724.5z"/>
<path class="st0" d="M818.4,704.4h21v71c0,6.1,0.5,10.4,1.6,13c1.1,2.5,2.8,4.6,5.3,6.1s5.4,2.3,8.9,2.3c3.7,0,6.9-0.8,9.5-2.5
	c2.7-1.7,4.5-3.8,5.5-6.5c1-2.6,1.5-7.6,1.5-15v-68.4h21v65.5c0,11-0.6,18.7-1.9,23c-1.2,4.3-3.6,8.4-7.1,12.4s-7.6,6.9-12.1,8.8
	c-4.6,1.9-9.9,2.9-16,2.9c-8,0-14.9-1.8-20.8-5.5c-5.9-3.7-10.1-8.2-12.7-13.7c-2.5-5.5-3.8-14.8-3.8-27.9L818.4,704.4L818.4,704.4z
	"/>
<path class="st0" d="M1043.8,723.7l-14.6,13.9c-9.9-10.5-21.1-15.8-33.6-15.8c-10.5,0-19.3,3.6-26.5,10.8s-10.8,16-10.8,26.5
	c0,7.3,1.6,13.8,4.8,19.5s7.7,10.1,13.5,13.4c5.8,3.2,12.3,4.9,19.4,4.9c6.1,0,11.6-1.1,16.6-3.4c5-2.3,10.5-6.4,16.6-12.4
	l14.2,14.8c-8.1,7.9-15.8,13.4-23,16.5c-7.2,3.1-15.5,4.6-24.7,4.6c-17.1,0-31-5.4-41.9-16.2s-16.3-24.7-16.3-41.6
	c0-10.9,2.5-20.7,7.4-29.2c5-8.5,12-15.3,21.3-20.5c9.2-5.2,19.2-7.8,29.8-7.8c9.1,0,17.8,1.9,26.2,5.7
	C1030.5,711.2,1037.7,716.6,1043.8,723.7z"/>
<path class="st0" d="M1095.7,704.4h76.8V725h-28.1v89.2h-21.2V725h-27.6L1095.7,704.4L1095.7,704.4z"/>
<path class="st0" d="M1230.8,704.4h20.7v109.8h-20.7V704.4z"/>
<path class="st0" d="M1375.2,701.6c15.5,0,28.9,5.6,40.1,16.9c11.2,11.2,16.8,25,16.8,41.1c0,16-5.5,29.6-16.5,40.7
	c-11,11.1-24.4,16.6-40.1,16.6c-16.5,0-30.2-5.7-41.1-17.1c-10.9-11.4-16.4-24.9-16.4-40.6c0-10.5,2.5-20.2,7.6-29
	s12.1-15.8,20.9-20.9C1355.4,704.2,1364.9,701.6,1375.2,701.6z M1375,722c-10.2,0-18.7,3.5-25.6,10.6s-10.4,16-10.4,26.9
	c0,12.1,4.4,21.7,13.1,28.8c6.8,5.5,14.5,8.3,23.3,8.3c9.9,0,18.4-3.6,25.3-10.7c7-7.2,10.5-16,10.5-26.5c0-10.4-3.5-19.3-10.5-26.5
	C1393.6,725.7,1385,722,1375,722z"/>
<path class="st0" d="M1517.1,704.4h20l47,72.2v-72.2h20.9v109.8h-20.1l-46.9-72v72h-20.9V704.4z"/>
<circle class="st0" cx="1714.1" cy="161.9" r="28.3"/>
<polygon class="st0" points="1876,935.9 1876,1206 1605.9,1206 1605.9,1186.6 1856.6,1186.6 1856.6,935.9 "/>
<polygon class="st0" points="270.1,1206 0,1206 0,935.9 19.4,935.9 19.4,1186.6 270.1,1186.6 "/>
<polygon class="st0" points="0,270.1 0,0 270.1,0 270.1,19.4 19.4,19.4 19.4,270.1 "/>
<polygon class="st0" points="1605.9,0 1876,0 1876,270.1 1856.6,270.1 1856.6,19.4 1605.9,19.4 "/>
</svg>
