<svg width="30" height="30" viewBox="0 0 30 30" fill="none" xmlns="http://www.w3.org/2000/svg">
<path d="M15 0C6.71625 0 0 6.2175 0 13.8881C0 18.2588 2.18062 22.1569 5.58938 24.7031V30L10.6969 27.1969C12.06 27.5737 13.5037 27.7781 15 27.7781C23.2838 27.7781 30 21.5606 30 13.89C30 6.21937 23.2838 0 15 0ZM16.4906 18.7031L12.6712 14.6287L5.21812 18.7031L13.4175 9.99938L17.3306 14.0738L24.69 9.99938L16.4906 18.7031Z" fill="#212121"/>
</svg>
